…
adams_words_nostop <- adams %>% 
  unnest_tokens(word,paragraph) %>%
  group_by(word) %>%
  anti_join(stop_words) %>%
  summarize(count = n()) %>%
  arrange(-count)
  
adams_words
```

    ## # A tibble: 12,701 x 2
    ##    word  count
    ##    <chr> <int>
    ##  1 the   11428
    ##  2 of     6739
    ##  3 and    5257
    ##  4 to     5100
    ##  5 in     3662
    ##  6 a      3597
    ##  7 he     3433
    ##  8 was    3116
    ##  9 his    2337
    ## 10 as     2258
    ## # ... with 12,691 more rows

``` r
adams_words_nostop
```

    ## # A tibble: 12,126 x 2
    ##    word      count
    ##    <chr>     <int>
    ##  1 adams       808
    ##  2 education   498
    ##  3 american    327
    ##  4 life        322
    ##  5 mind        290
    ##  6 society     274
    ##  7 time        270
    ##  8 world       243
    ##  9 force       229
    ## 10 secretary   188
    ## # ... with 12,116 more rows
…
# Explore ngrams

``` r
adams_bigrams <- adams %>%
  unnest_tokens(word,paragraph,token="ngrams",n=2) %>%
  group_by(word) %>% summarize(count = n()) %>%
  arrange(-count)

adams_bigrams
```

    ## # A tibble: 90,731 x 2
    ##    word    count
    ##    <chr>   <int>
    ##  1 of the   1192
    ##  2 in the    881
    ##  3 to the    504
    ##  4 he had    469
    ##  5 and the   466
    ##  6 he was    424
    ##  7 to be     420
    ##  8 on the    363
    ##  9 of his    338
    ## 10 for the   315
    ## # ... with 90,721 more rows
…
``` r
adams_trigrams <- adams %>%
  unnest_tokens(word,paragraph,token="ngrams",n=3) %>%
  group_by(word) %>% summarize(count = n()) %>%
  arrange(-count)

adams_trigrams
```

    ## # A tibble: 156,647 x 2
    ##    word                  count
    ##    <chr>                 <int>
    ##  1 he could not             94
    ##  2 the private secretary    64
    ##  3 as far as                60
    ##  4 as well as               57
    ##  5 one of the               57
    ##  6 project gutenberg tm     56
    ##  7 would have been          48
    ##  8 he would have            46
    ##  9 more or less             45
    ## 10 of his own               45
    ## # ... with 156,637 more rows
…
webster_2gram <- webster %>%
  unnest_tokens(word,paragraph,token="ngrams",n=2) %>%
  group_by(word) %>% summarize(count = n()) %>%
  arrange(-count)

webster_words
```

    ## # A tibble: 6,645 x 2
    ##    word      count
    ##    <chr>     <int>
    ##  1 webster     299
    ##  2 daniel      255
    ##  3 time        142
    ##  4 father      103
    ##  5 boy          95
    ##  6 day          92
    ##  7 life         92
    ##  8 project      88
    ##  9 gutenberg    87
    ## 10 college      84
    ## # ... with 6,635 more rows

``` r
webster_2gram
```

    ## # A tibble: 38,014 x 2
    ##    word       count
    ##    <chr>      <int>
    ##  1 of the       479
    ##  2 in the       314
    ##  3 to the       234
    ##  4 he was       218
    ##  5 of his       184
    ##  6 mr webster   163
    ##  7 he had       150
    ##  8 it was       145
    ##  9 it is        133
    ## 10 and the      120
    ## # ... with 38,004 more rows
…
